<svg xmlns="http://www.w3.org/2000/svg" width="73" height="56" viewBox="0 0 73 56">
  <g fill="none" fill-rule="evenodd">
    <path fill="#525762" d="M49.0250088,-9.9475983e-14 L68.5520941,-9.9475983e-14 C69.7609419,-9.9475983e-14 70.8586667,0.492185654 71.6535871,1.28492827 C72.4485076,2.07767089 72.9420454,3.17262447 72.9420454,4.37792405 L72.9420454,51.6216034 C72.9420454,52.8271392 72.4485076,53.9220928 71.6535871,54.7148354 C70.8586667,55.5078143 69.7609419,55.9997637 68.5520941,55.9997637 L49.0250088,55.9997637 C47.816161,55.9997637 46.7184362,55.5078143 45.9232788,54.7148354 C45.3375729,54.1304979 44.9153528,53.3821772 44.7338598,52.5464304 C45.151815,52.5988861 45.577826,52.6260591 46.0099974,52.6260591 C46.5419189,52.6260591 47.0641259,52.5849451 47.5735385,52.5060253 C47.6443823,52.6203882 47.7280208,52.7257722 47.8230321,52.8202869 C48.1322337,53.1291139 48.5580078,53.3207426 49.0250088,53.3207426 L68.5520941,53.3207426 C69.0190951,53.3207426 69.4448692,53.1291139 69.7540708,52.8202869 C70.0635093,52.5119325 70.2554275,52.0875612 70.2554275,51.6216034 L70.2554275,4.37792405 C70.2554275,3.91220253 70.0635093,3.48783122 69.7540708,3.17924051 C69.4448692,2.87064979 69.0190951,2.6790211 68.5520941,2.6790211 L49.0250088,2.6790211 C48.5580078,2.6790211 48.1322337,2.87064979 47.8230321,3.17924051 C47.5135936,3.48783122 47.3214385,3.91220253 47.3214385,4.37792405 L47.3214385,32.5407257 C46.8921104,32.4854346 46.4544895,32.4566076 46.0099974,32.4566076 C45.5437072,32.4566076 45.0845252,32.48827 44.6350574,32.5492321 L44.6350574,4.37792405 C44.6350574,3.17262447 45.1285953,2.07767089 45.9232788,1.28492827 C46.7184362,0.492185654 47.816161,-9.9475983e-14 49.0250088,-9.9475983e-14"/>
    <path fill="#525762" d="M51.498716,37.067865 C50.094159,35.6671561 48.1536527,34.800692 46.0100922,34.800692 C43.8667686,34.800692 41.9262623,35.6671561 40.5217053,37.067865 C39.1171483,38.4685738 38.2483038,40.4037637 38.2483038,42.5414515 C38.2483038,44.678903 39.1171483,46.6140928 40.5217053,48.0148017 C41.9262623,49.4155105 43.8667686,50.2819747 46.0100922,50.2819747 C48.1536527,50.2819747 50.094159,49.4155105 51.498716,48.0148017 C52.903273,46.6140928 53.7718806,44.678903 53.7718806,42.5414515 C53.7718806,40.4037637 52.903273,38.4685738 51.498716,37.067865 M46.0100922,32.4564895 C48.8023836,32.4564895 51.3307283,33.5854684 53.1608225,35.4103122 C54.9906796,37.2353924 56.1227601,39.7568101 56.1227601,42.5414515 C56.1227601,45.3258565 54.9906796,47.8472743 53.1608225,49.6723544 C51.3307283,51.4971983 48.8023836,52.6261772 46.0100922,52.6261772 C43.2178007,52.6261772 40.689693,51.4971983 38.8595988,49.6723544 C37.0297416,47.8472743 35.8976611,45.3258565 35.8976611,42.5414515 C35.8976611,39.7568101 37.0297416,37.2353924 38.8595988,35.4103122 C40.689693,33.5854684 43.2178007,32.4564895 46.0100922,32.4564895"/>
    <path fill="#CE422C" d="M62.3575193,8.62886751 L56.155481,8.62886751 C55.4242963,8.62886751 54.7587429,8.92800675 54.2751564,9.41026835 C53.7918069,9.89229367 53.4916089,10.5562599 53.4916089,11.2854414 L53.4916089,25.5919055 C53.4916089,26.3208506 53.7918069,26.9848169 54.2751564,27.4670785 C54.7587429,27.9491038 55.4242963,28.2484793 56.155481,28.2484793 L62.3575193,28.2484793 C63.088704,28.2484793 63.7544943,27.9491038 64.2378439,27.4670785 C64.7214304,26.9848169 65.0213914,26.3208506 65.0213914,25.5919055 L65.0213914,11.2854414 C65.0213914,10.5562599 64.7214304,9.89229367 64.2378439,9.41026835 C63.7544943,8.92800675 63.088704,8.62886751 62.3575193,8.62886751 M56.155481,5.94961013 L62.3575193,5.94961013 C63.8303139,5.94961013 65.1680549,6.54954262 66.1373603,7.51595612 C67.1061918,8.48236962 67.7077725,9.81644557 67.7077725,11.2854414 L67.7077725,25.5919055 C67.7077725,27.0604287 67.1061918,28.3947409 66.1373603,29.3613907 C65.1680549,30.3278042 63.8303139,30.9277367 62.3575193,30.9277367 L56.155481,30.9277367 C54.6826865,30.9277367 53.3447085,30.3278042 52.3756401,29.3613907 C51.4065716,28.3947409 50.8049909,27.0604287 50.8049909,25.5919055 L50.8049909,11.2854414 C50.8049909,9.81644557 51.4065716,8.48236962 52.3756401,7.51595612 C53.3447085,6.54954262 54.6826865,5.94961013 56.155481,5.94961013"/>
    <path fill="#525762" d="M21.4680182,19.8537722 L21.4680182,17.1747511 L12.4874307,17.1747511 L12.4874307,32.7363713 C13.4429938,32.9658059 14.3454833,33.3303966 15.1740487,33.8091139 L15.1740487,19.8537722 L21.4680182,19.8537722 Z M34.3665803,19.8537722 L44.6349153,19.8537722 L44.6349153,17.1747511 L34.3665803,17.1747511 L34.3665803,19.8537722 Z M34.3665803,13.8258565 L44.6349153,13.8258565 L44.6349153,11.1468354 L34.3665803,11.1468354 L34.3665803,13.8258565 Z M9.48995261,11.1468354 L21.4680182,11.1468354 L21.4680182,13.8258565 L9.57359104,13.8258565 L9.48995261,13.8258565 C9.39233496,13.8258565 9.30229925,13.8669705 9.23643103,13.9326582 L9.23382473,13.9300591 C9.16937812,13.9957468 9.12957287,14.0860084 9.12957287,14.1854852 L9.12957287,32.503865 C8.19059526,32.5943629 7.28905355,32.812692 6.44295488,33.1413671 L6.44295488,14.1854852 C6.44295488,13.351865 6.78532749,12.5936203 7.33691464,12.0435443 L7.33691464,12.038346 C7.88850179,11.48827 8.65048815,11.1468354 9.48995261,11.1468354 L9.48995261,11.1468354 Z"/>
    <path fill="#525762" d="M15.6010549 37.067865C14.1964979 35.6671561 12.2559916 34.800692 10.112668 34.800692 7.96910743 34.800692 6.02883804 35.6671561 4.62428108 37.067865 3.21948718 38.4685738 2.35087958 40.4037637 2.35087958 42.5414515 2.35087958 44.678903 3.21972412 46.6140928 4.62428108 48.0148017 6.02883804 49.4155105 7.96910743 50.2819747 10.112668 50.2819747 12.2559916 50.2819747 14.1964979 49.4155105 15.6010549 48.0148017 17.0056118 46.6140928 17.8744563 44.678903 17.8744563 42.5414515 17.8744563 40.4037637 17.0056118 38.4685738 15.6010549 37.067865M10.112668 32.4564895C12.9049594 32.4564895 15.4330672 33.5854684 17.2631613 35.4103122 19.0930185 37.2353924 20.225099 39.7568101 20.225099 42.5414515 20.225099 45.3258565 19.0930185 47.8472743 17.2631613 49.6723544 15.4330672 51.4971983 12.9049594 52.6261772 10.112668 52.6261772 7.3203765 52.6261772 4.79226874 51.4971983 2.96217462 49.6723544 1.13231743 47.8472743 0 45.3258565 0 42.5414515 0 39.7568101 1.13231743 37.2353924 2.96217462 35.4103122 4.79226874 33.5854684 7.3203765 32.4564895 10.112668 32.4564895M25.689816 5.94963376L30.1449247 5.94963376C31.307333 5.94963376 32.3631201 6.42291646 33.1277128 7.18517806 33.8920685 7.94767595 34.3666514 9.00057046 34.3666514 10.1597941L34.3666514 31.9144945C34.3666514 32.7729249 34.1062587 33.5732287 33.6608189 34.2400304 32.9128117 33.7244523 32.0920652 33.3071696 31.2165865 33.0056675L31.2279594 32.994562C31.5070701 32.7166886 31.6800334 32.3341401 31.6800334 31.9144945L31.6800334 10.1597941C31.6800334 9.74014852 31.5070701 9.3576 31.2279594 9.07972658 30.9490857 8.80138059 30.5654862 8.62889114 30.1449247 8.62889114L25.689816 8.62889114C25.2692545 8.62889114 24.885418 8.80138059 24.6067812 9.07972658 24.3279075 9.3576 24.1547072 9.74014852 24.1547072 10.1597941L24.1547072 31.9144945C24.1547072 32.3341401 24.3279075 32.7166886 24.6067812 32.994562L24.6181542 33.0056675C23.7426754 33.3071696 22.921692 33.7244523 22.1739218 34.2400304 21.7282451 33.5729924 21.4680893 32.7729249 21.4680893 31.9144945L21.4680893 10.1597941C21.4680893 9.00057046 21.9429091 7.94767595 22.7070279 7.18517806 23.4718575 6.42291646 24.5274077 5.94963376 25.689816 5.94963376"/>
    <path fill="#525762" d="M33.4057335 37.067865C32.0014135 35.6671561 30.0609072 34.800692 27.9173466 34.800692 25.7737861 34.800692 23.8335167 35.6671561 22.4289598 37.067865 21.0244028 38.4685738 20.1555583 40.4037637 20.1555583 42.5414515 20.1555583 44.678903 21.0244028 46.6140928 22.4289598 48.0148017 23.8335167 49.4155105 25.7737861 50.2819747 27.9173466 50.2819747 30.0609072 50.2819747 32.0014135 49.4155105 33.4057335 48.0148017 34.8102905 46.6140928 35.679135 44.678903 35.679135 42.5414515 35.679135 40.4037637 34.8102905 38.4685738 33.4057335 37.067865M27.9173466 32.4564895C30.7096381 32.4564895 33.2377459 33.5854684 35.06784 35.4103122 36.8976972 37.2353924 38.0297777 39.7568101 38.0297777 42.5414515 38.0297777 45.3258565 36.8976972 47.8472743 35.06784 49.6723544 33.2377459 51.4971983 30.7096381 52.6261772 27.9173466 52.6261772 25.1250552 52.6261772 22.5969474 51.4971983 20.7668533 49.6723544 18.9369961 47.8472743 17.8049156 45.3258565 17.8049156 42.5414515 17.8049156 39.7568101 18.9369961 37.2353924 20.7668533 35.4103122 22.5969474 33.5854684 25.1250552 32.4564895 27.9173466 32.4564895M25.2814567 55.9996928L30.553284 55.9996928 30.553284 53.3206717 25.2814567 53.3206717zM7.47665953 55.9996928L12.7484869 55.9996928 12.7484869 53.3206717 7.47665953 53.3206717z"/>
  </g>
</svg>
