<svg xmlns="http://www.w3.org/2000/svg" width="45" height="60" viewBox="0 0 45 60">
  <g fill="none" fill-rule="evenodd">
    <path fill="#585D69" d="M13.6572816 7.78235294L5.35631068 7.78235294C5.27415803 7.78457852 5.19597703 7.81852594 5.13786408 7.87720588L5.11165049 7.90147059C5.06571495 7.95971987 5.04103169 8.03215889 5.04174757 8.10661765L5.04174757 10.2882353C5.04218864 10.6560031 4.81278626 10.9840286 4.46941748 11.1066176L1.72354369 12.2095588 1.72354369 24.3992647 2.62354369 25.6566176C2.65317201 25.5026827 2.72421695 25.359963 2.8288835 25.2441176L7.3157767 19.5661765 7.3157767 10.9477941C7.31577517 10.4686538 7.69978493 10.0798926 8.17427184 10.0786765L13.6572816 10.0786765 13.6572816 10.0345588C13.5758875 9.30156158 13.5758875 8.56167371 13.6572816 7.82867647L13.6572816 7.78455882 13.6572816 7.78235294zM5.35631068 6.04411692L14.6643204 6.04411692C14.723843 6.04411692 14.7831796 6.05082909 14.8412621 6.06397059 15.3032499 6.16520626 15.5965962 6.62533817 15.4966019 7.09191176 15.4332524 7.39632353 15.3851942 7.70073529 15.3524272 8.00294118 15.2912548 8.61904375 15.2912548 9.23977978 15.3524272 9.85588235 15.3828008 10.1440907 15.4280076 10.4305074 15.4878641 10.7139706 15.5079579 10.7895113 15.5182383 10.8673701 15.5184466 10.9455882 15.5184466 11.4255887 15.1331072 11.8147059 14.657767 11.8147059L9.03495146 11.8147059 9.03495146 19.8661765 9.03495146 19.8661765C9.03609482 20.0624668 8.9705579 20.2532193 8.84927184 20.4066176L4.32524272 26.1242647 4.32524272 28.3125 4.32524272 28.3125C4.32659061 28.5908843 4.19377475 28.8525378 3.96917476 29.0139706 3.78476141 29.1485685 3.55488076 29.2035155 3.33028276 29.1666812 3.10568477 29.1298469 2.90483968 29.0042604 2.77208738 28.8176471L.218446602 25.2375C.079369451 25.0810229.00168574764 24.878634 0 24.6683824L0 11.6161765C.000311836919 11.2599205.215894821 10.9399329.543932039 10.8088235L3.31820388 9.70588235 3.31820388 8.10661765C3.31976353 7.59050385 3.51309472 7.09377812 3.85995146 6.71470588 3.87838791 6.69156546 3.8980782 6.66947287 3.91893204 6.64852941 4.30062303 6.26120717 4.81956272 6.04365643 5.36067961 6.04411692L5.35631068 6.04411692zM14.6643204 53.7970596L5.36067961 53.7970596C4.81956272 53.79752 4.30062303 53.5799693 3.91893204 53.1926471 3.89758696 53.1729734 3.87786175 53.1515794 3.85995146 53.1286765 3.52389415 52.76054 3.33209049 52.2814267 3.32038835 51.7808824L.380097087 49.7647059C.14278708 49.6048288.000187420161 49.3358676 0 49.0477941L0 49.0477941 0 35.4882353C0 35.2986732.0613659654 35.1143076.174757282 34.9632353L2.74805825 31.0323529C2.95696889 30.7127221 3.34882076 30.5693869 3.71198274 30.6797597 4.07514473 30.7901324 4.32355742 31.1280579 4.32305825 31.5110294L4.32305825 31.5110294 4.32305825 33.6860294 8.82742718 39.0816176C8.95933845 39.237829 9.0314175 39.43662 9.03058252 39.6419118L9.03058252 39.6419118 9.03058252 48.0242647 14.6643204 48.0242647C15.1396606 48.0242647 15.525 48.4133819 15.525 48.8933824 15.5247917 48.9716005 15.5145113 49.0494592 15.4944175 49.125 15.434561 49.4084632 15.3893542 49.6948799 15.3589806 49.9830882 15.2978082 50.5991908 15.2978082 51.2199268 15.3589806 51.8360294 15.3917476 52.1382353 15.4398058 52.4426471 15.5031553 52.7470588 15.601872 53.2133976 15.3090627 53.6726872 14.8478155 53.775 14.789733 53.7881415 14.7303964 53.7947991 14.6708738 53.7948529L14.6643204 53.7970596zM5.36067961 52.0588235L13.6616505 52.0588235 13.6616505 52.0125C13.5800919 51.2795121 13.5800919 50.5396056 13.6616505 49.8066176L13.6616505 49.7602941 8.17427184 49.7602941C7.70013807 49.7602941 7.3157767 49.3721645 7.3157767 48.8933824L7.3157767 39.9573529 2.83980583 34.6036765C2.76001326 34.519111 2.69764234 34.4193889 2.65631068 34.3102941L1.71699029 35.7463235 1.71699029 48.5933824 4.58737864 50.5632353C4.85945515 50.7175717 5.02684508 51.0091501 5.02427184 51.3242647L5.02427184 51.7367647C5.02355596 51.8112235 5.04823923 51.8836625 5.09417476 51.9419118L5.12038835 51.9639706C5.18337009 52.0288286 5.27083618 52.0633551 5.36067961 52.0588235z"/>
    <path fill="#585D69" d="M9.03276699,52.0588204 L12.1587379,52.0588204 C12.3894778,52.0581937 12.6107553,52.1513843 12.7726761,52.3173825 C12.9345969,52.4833808 13.0235282,52.7082105 13.0194175,52.9411765 L13.0194175,58.9852941 C13.0194175,59.4652945 12.6340781,59.8544118 12.1587379,59.8544118 L5.89805825,59.8544118 C5.42271803,59.8544118 5.03737864,59.4652945 5.03737864,58.9852941 L5.03737864,52.9411765 C5.03326791,52.7082105 5.12219918,52.4833808 5.28412,52.3173825 C5.44604082,52.1513843 5.66731831,52.0581937 5.89805825,52.0588204 L9.03276699,52.0588204 Z M11.3002427,53.7948529 L6.77184466,53.7948529 L6.77184466,58.1029412 L11.3002427,58.1029412 L11.3002427,53.7948529 Z"/>
    <path fill="#D03726" d="M9.72087379,17.4816176 L15.975,17.4816176 C16.4503402,17.4816176 16.8356796,17.8707349 16.8356796,18.3507353 L16.8356796,41.4926471 C16.8308883,41.9691981 16.4469487,42.3529412 15.975,42.3529412 L9.72087379,42.3529412 C9.24553356,42.3529412 8.86019417,41.963824 8.86019417,41.4838235 L8.86019417,18.3507353 C8.86019417,17.8707349 9.24553356,17.4816176 9.72087379,17.4816176 L9.72087379,17.4816176 Z M15.1143204,19.2198529 L10.5793689,19.2198529 L10.5793689,40.6169118 L15.1143204,40.6169118 L15.1143204,19.2198529 Z"/>
    <path fill="#D03726" d="M2.83980583 25.2397059L9.06553398 17.7904412C9.29828335 17.5127009 9.67801251 17.4112733 10.0163122 17.5364833 10.354612 17.6616934 10.5794899 17.9868956 10.579369 18.3507353L10.579369 18.3507353 10.579369 41.4926471C10.5784463 41.8675682 10.3395384 42.1996326 9.98671809 42.316388 9.63389783 42.4331433 9.24670168 42.3082695 9.02621359 42.0066176L2.8092233 34.5617647C2.67731203 34.4055534 2.60523299 34.2067623 2.60606079 34.0014706L2.60606079 34.0014706 2.60606079 25.8397059C2.60589277 25.615118 2.69203759 25.3992261 2.84635922 25.2375L2.83980583 25.2397059zM8.86019417 20.7352941L4.32524272 26.1573529 4.32524272 33.6860294 8.86019417 39.1169118 8.86019417 20.7352941zM34.2961165 19.2198529L29.7589806 19.2198529 29.7589806 40.6169118 34.2961165 40.6169118 34.2961165 19.2198529zM28.9004854 17.4816176L35.1567961 17.4816176C35.6291919 17.488721 36.0104414 17.8737081 36.0174757 18.3507353L36.0174757 41.4926471C36.0104414 41.9696742 35.6291919 42.3546614 35.1567961 42.3617647L28.898301 42.3617647C28.4259051 42.3546614 28.0446557 41.9696742 28.0376214 41.4926471L28.0376214 18.3507353C28.0446557 17.8737081 28.4259051 17.488721 28.898301 17.4816176L28.9004854 17.4816176z"/>
    <path fill="#585D69" d="M30.211165 6.04411765L39.5148058 6.04411765C40.0544566 6.04458648 40.5716988 6.26208465 40.9521845 6.64852941L40.9521845 6.64852941C41.3352093 7.03342326 41.5506034 7.55654844 41.5507282 8.10220588L41.5507282 9.70588235 44.325 10.8088235C44.653436 10.9394295 44.8692303 11.2597308 44.8689323 11.6161765L44.8689323 24.6683824C44.868521 24.8768897 44.7950006 25.0785133 44.6614078 25.2375L42.1012136 28.8176471C41.8831108 29.1209512 41.4966717 29.2483553 41.1433522 29.133442 40.7900327 29.0185286 40.5498676 28.6873282 40.5480583 28.3125L40.5480583 28.3125 40.5480583 26.1375 36.0436893 20.7617647C35.9135937 20.604489 35.841766 20.4063912 35.840534 20.2014706L35.840534 20.2014706 35.840534 11.8191176 30.211165 11.8191176C29.9827207 11.8197054 29.7634651 11.7283266 29.6019301 11.5652079 29.440395 11.4020891 29.3499034 11.180684 29.3504826 10.95 29.3506937 10.8717818 29.3609741 10.7939231 29.381068 10.7183824 29.4402143 10.4348842 29.484692 10.1484665 29.5143204 9.86029412 29.6114356 8.93707206 29.5627716 8.00413425 29.3701456 7.09632353 29.2714289 6.62998477 29.5642383 6.17069514 30.0254854 6.06838235 30.0843067 6.05523767 30.1443673 6.04858101 30.2046117 6.04852941L30.211165 6.04411765zM39.5148058 7.78234511L31.213835 7.78234511 31.213835 7.82647059C31.2923249 8.5596288 31.2923249 9.29919472 31.213835 10.0323529L31.213835 10.0764706 36.6990291 10.0764706C37.1743694 10.0764706 37.5597087 10.4655878 37.5597087 10.9455882L37.5597087 19.8860294 42.0291262 25.2176471C42.1419939 25.3407457 42.2177707 25.4937849 42.2475728 25.6588235L43.1475728 24.4014706 43.1475728 12.2051471 40.3995146 11.1022059C40.0561458 10.9796168 39.8267434 10.6515913 39.8271845 10.2838235L39.8271845 8.10661765C39.828361 8.02064173 39.7952084 7.93780822 39.7352046 7.8768011 39.6752008 7.81579399 39.5933997 7.78175174 39.5082524 7.78234511L39.5148058 7.78234511zM22.4366505 41.9801396C26.6563354 41.9801396 30.2885083 44.9898396 31.1118708 49.1689903 31.9352332 53.348141 29.7204663 57.5326349 25.8220371 59.1633948 21.923608 60.7941548 17.4272877 59.4169897 15.0828545 55.8741213 12.7384212 52.3312529 13.198835 47.6094233 16.1825243 44.5963235 17.8394234 42.9186202 20.0902479 41.9770732 22.4366505 41.9801396zM27.4740291 45.825C25.0705441 43.3970722 21.3032976 43.0218087 18.4763536 44.9287223 15.6494096 46.8356358 14.5501863 50.4935738 15.8509735 53.6653259 17.1517607 56.8370779 20.4902363 58.6391827 23.8245747 57.9694652 27.158913 57.2997477 29.5603657 54.3447515 29.560202 50.9117647 29.5629892 49.003374 28.8121658 47.1726168 27.4740291 45.825z"/>
    <path fill="#585D69" d="M22.4366505,1.73822992 C19.0382059,1.73849793 16.1131975,4.16288898 15.4504303,7.52875875 C14.7876631,10.8946285 16.5717251,14.2645446 19.7115634,15.5776162 C22.8514018,16.8906878 26.4725362,15.7812098 28.3604421,12.9276895 C30.248348,10.0741693 29.8772224,6.27134427 27.4740291,3.84485294 C26.1392219,2.49401091 24.3264173,1.73590109 22.4366505,1.73822992 L22.4366505,1.73822992 Z M16.1825243,2.62058824 C19.1666616,-0.392645492 23.843214,-0.857334072 27.3517371,1.51075236 C30.8602602,3.87883879 32.2233776,8.42001764 30.6073296,12.3566466 C28.9912816,16.2932756 24.8462538,18.5287201 20.7075801,17.6956556 C16.5689064,16.8625911 13.5895054,13.1930861 13.5917401,8.93161765 C13.5887036,6.56221112 14.5211094,4.28931974 16.1825243,2.61617647 L16.1825243,2.62058824 Z"/>
    <path fill="#D03726" d="M24.3262136,25.3897059 L28.1359223,17.9536765 C28.3178106,17.5989101 28.7162293,17.4155923 29.1006925,17.5097727 C29.4851557,17.6039531 29.7561051,17.9512432 29.7567961,18.3507353 L29.7567961,18.3507353 L29.7567961,41.4926471 C29.7562397,41.9049168 29.4689315,42.2600659 29.0689835,42.3428697 C28.6690355,42.4256735 28.266509,42.2133455 28.1053398,41.8345588 L24.2956311,34.3985294 C24.2323872,34.2759268 24.1994129,34.1397095 24.1995082,34.0014706 L24.1995082,34.0014706 L24.1995082,25.8397059 C24.1989014,25.6799531 24.242807,25.5232483 24.3262136,25.3875 L24.3262136,25.3897059 Z M28.0398058,21.9176471 L25.9230583,26.0492647 L25.9230583,33.7941176 L28.0398058,37.9257353 L28.0398058,21.9176471 Z"/>
    <path fill="#585D69" d="M31.2160194,52.0588235 L39.5169903,52.0588235 C39.5989516,52.0557302 39.6768319,52.0219134 39.7354369,51.9639706 C39.7925603,51.9048142 39.8253466,51.8259863 39.8271845,51.7433824 L39.8271845,51.3308824 C39.8255476,51.0160186 39.992682,50.7248852 40.2640777,50.5698529 L43.138835,48.6 L43.138835,35.7463235 L42.1995146,34.3102941 C42.1581818,34.4199023 42.0949811,34.5197624 42.013835,34.6036765 L37.5444175,39.9573529 L37.5444175,48.8955882 C37.5444182,49.1258902 37.4536701,49.3467276 37.2921982,49.5093686 C37.1307264,49.6720097 36.9118032,49.763086 36.6837379,49.7625 L31.2160194,49.7625 L31.2160194,49.8088235 C31.2946624,50.5419734 31.2946624,51.281556 31.2160194,52.0147059 L31.2160194,52.0610294 L31.2160194,52.0588235 Z M39.5169903,53.7948529 L30.211165,53.7948529 C30.1509207,53.7948013 30.0908601,53.7881447 30.0320388,53.775 C29.5707917,53.6726872 29.2779823,53.2133976 29.376699,52.7470588 C29.5652895,51.8387122 29.6139201,50.9064151 29.5208738,49.9830882 C29.4912454,49.6949159 29.4467677,49.4084982 29.3876214,49.125 C29.3675275,49.0494592 29.3572471,48.9716005 29.357036,48.8933824 C29.3564568,48.6626983 29.4469484,48.4412932 29.6084835,48.2781745 C29.7700185,48.1150557 29.9892741,48.023677 30.2177184,48.0242647 L35.8449029,48.0242647 L35.8449029,39.6419118 L35.8449029,39.6419118 C35.8461349,39.4369912 35.9179626,39.2388933 36.0480583,39.0816176 L40.5546117,33.6860294 L40.5546117,31.5110294 L40.5546117,31.5110294 C40.5541125,31.1280579 40.8025252,30.7901324 41.1656872,30.6797597 C41.5288491,30.5693869 41.920701,30.7127221 42.1296117,31.0323529 L44.7029126,34.9632353 C44.8163039,35.1143076 44.8776699,35.2986732 44.8776699,35.4882353 L44.8776699,49.0477941 L44.8776699,49.0477941 C44.8773072,49.3347458 44.7367054,49.6030225 44.5019417,49.7647059 L41.5616505,51.7808824 C41.5492042,52.3110089 41.334821,52.8158773 40.9631068,53.1904412 L40.9631068,53.1904412 C40.5803161,53.5804144 40.0585573,53.7989519 39.5148058,53.797071 L39.5169903,53.7948529 Z"/>
    <path fill="#D03726" d="M22.4366505,26.7110294 L20.6737864,26.7110294 L20.6737864,33.1323529 L24.1995146,33.1323529 L24.1995146,26.7110294 L22.4366505,26.7110294 Z M19.8152913,24.9727913 L25.0580097,24.9727913 C25.2864541,24.9722064 25.5057096,25.0635851 25.6672447,25.2267039 C25.8287798,25.3898226 25.9192713,25.6112278 25.9186921,25.8419118 L25.9186921,34.0036765 C25.9186921,34.4836769 25.5333499,34.8727941 25.0580097,34.8727941 L19.8152913,34.8727941 C19.3428954,34.8656908 18.961646,34.4807036 18.9546117,34.0036765 L18.9546117,25.8419118 C18.9546117,25.3627715 19.3386199,24.9740102 19.8131068,24.9727913 L19.8152913,24.9727913 Z"/>
    <path fill="#585D69" d="M35.8427184 53.7970588L33.5752427 53.7970588 33.5752427 58.1051471 38.1101942 58.1051471 38.1101942 53.7970588 35.8427184 53.7970588zM32.7145631 52.0588204L38.9708738 52.0588204C39.1989398 52.0588204 39.4176331 52.1504606 39.5786952 52.3135155 39.7397572 52.4765704 39.8299493 52.6976399 39.8293717 52.9279412L39.8293717 58.9720588C39.8293717 59.4511991 39.4453607 59.8399604 38.9708738 59.8411765L32.7145631 59.8411765C32.2392229 59.8411765 31.8538835 59.4520592 31.8538835 58.9720588L31.8538835 52.9411765C31.8497728 52.7082105 31.938704 52.4833808 32.1006249 52.3173825 32.2625457 52.1513843 32.4838232 52.0581937 32.7145631 52.0588204zM22.4366505 6.11691014C23.7657524 6.11573008 24.9104897 7.06303024 25.170487 8.3792331 25.4304843 9.69543596 24.7332877 11.0137534 23.5054574 11.5276097 22.2776272 12.041466 20.8613245 11.6076642 20.1230746 10.4916137 19.3848247 9.37556319 19.5303568 7.88827543 20.4706311 6.93970588 20.9914597 6.41222345 21.6990034 6.11611101 22.4366505 6.11691014L22.4366505 6.11691014zM23.1924757 8.16838235C22.8867513 7.86103975 22.4279639 7.76955995 22.0294992 7.93649094 21.6310345 8.10342194 21.3711149 8.49599358 21.3706311 8.93161765 21.3706311 9.52613594 21.8479042 10.0081021 22.4366505 10.0081021 22.8709347 10.0103037 23.2633185 9.74679299 23.4292288 9.34150874 23.595139 8.93622449 23.5015464 8.46985079 23.1924757 8.16176471L23.1924757 8.16838235z"/>
    <path fill="#D03726" d="M18.9524272 26.0492647L16.8356796 21.9176471 16.8356796 37.9257353 18.9524272 33.7941176 18.9524272 26.0492647 18.9524272 26.0492647zM16.7395631 17.9536765L20.5470874 25.3897059C20.630494 25.5254542 20.6743995 25.6821589 20.6737927 25.8419118L20.6737927 34.0036765 20.6737927 34.0036765C20.6738881 34.1419153 20.6409138 34.2781327 20.5776699 34.4007353L16.7657767 41.8345588C16.6064771 42.2152276 16.2032303 42.4294241 15.802342 42.3463156 15.4014537 42.2632072 15.1143957 41.9059031 15.1164933 41.4926471L15.1164933 18.3507353 15.1164933 18.3507353C15.1152299 17.9495411 15.3867311 17.5998754 15.7728627 17.5054136 16.1589943 17.4109519 16.558868 17.5963749 16.7395631 17.9536765zM40.5502427 26.1573529L36.0152913 20.7352941 36.0152913 39.1257353 40.5502427 33.6948529 40.5502427 26.1573529zM35.8099515 17.7904412L42.0291262 25.2397059C42.1834479 25.401432 42.2695927 25.6173238 42.2694247 25.8419118L42.2694247 34.0036765 42.2694247 34.0036765C42.2702525 34.2089682 42.1981734 34.4077593 42.0662621 34.5639706L35.8470874 42.0066176C35.6260584 42.3063428 35.2400361 42.4298391 34.8884143 42.3133164 34.5367924 42.1967938 34.298296 41.8663404 34.2961165 41.4926471L34.2961165 18.3507353 34.2961165 18.3507353C34.2959955 17.9868956 34.5208735 17.6616934 34.8591732 17.5364833 35.1974729 17.4112733 35.5772021 17.5127009 35.8099515 17.7904412L35.8099515 17.7904412z"/>
    <path fill="#585D69" d="M26.3796117 45.8161747C26.9260322 45.8152843 27.4190992 46.1470985 27.6286137 46.6567044 27.8381281 47.1663103 27.7227667 47.7531967 27.3363885 48.1433629 26.9500103 48.5335291 26.3688219 48.6500215 25.8641636 48.438453 25.3595054 48.2268845 25.0309127 47.7289835 25.0317943 47.1772059 25.0329988 46.4260337 25.6357324 45.817391 26.3796117 45.8161747L26.3796117 45.8161747zM26.3796117 53.2852941C27.1239896 53.2852941 27.7274272 53.8946477 27.7274272 54.6463235 27.7274272 55.3979993 27.1239896 56.0073529 26.3796117 56.0073529 25.6352337 56.0073529 25.0317961 55.3979993 25.0317961 54.6463235 25.0329988 53.8951514 25.6357324 53.2865086 26.3796117 53.2852941L26.3796117 53.2852941zM18.4893204 45.8161747C19.0355431 45.8161747 19.5279397 46.148558 19.7367654 46.658235 19.9455911 47.167912 19.8296899 47.7544364 19.4431395 48.1441449 19.0565891 48.5338534 18.4755721 48.6499409 17.9711823 48.4382427 17.4667925 48.2265446 17.1384365 47.728783 17.1393186 47.1772059 17.1393186 46.8158559 17.2816213 46.469338 17.5348584 46.214032 17.7880955 45.958726 18.1314791 45.8155908 18.4893204 45.8161747zM18.4893204 53.2852923C19.2334128 53.2865119 19.8357543 53.8964038 19.8349515 54.6477917 19.834147 55.3991797 19.2305022 56.0077562 18.4864089 56.0073512 17.7423157 56.0069457 17.1393204 55.397712 17.1393204 54.6463235 17.1393204 54.2849736 17.2816213 53.9384557 17.5348584 53.6831497 17.7880955 53.4278436 18.1314791 53.2847085 18.4893204 53.2852923L18.4893204 53.2852923zM26.3796117 4.01470588C27.1239896 4.01470588 27.7274272 4.62405951 27.7274272 5.37573529 27.7274272 6.12741108 27.1239896 6.73676471 26.3796117 6.73676471 25.6352337 6.73676471 25.0317961 6.12741108 25.0317961 5.37573529 25.0329988 4.62456315 25.6357324 4.01592039 26.3796117 4.01470588L26.3796117 4.01470588zM26.3796117 11.4816158C26.9258336 11.4807251 27.4187626 11.8123003 27.6284054 12.3216351 27.8380482 12.8309699 27.7230878 13.4176832 27.3371629 13.8080232 26.951238 14.1983633 26.370408 14.3154008 25.8656793 14.1045278 25.3609506 13.8936548 25.0317961 13.3964307 25.0317961 12.8448529 25.0317961 12.0928195 25.6348805 11.4828345 26.3796117 11.4816158L26.3796117 11.4816158zM18.4893204 4.01470409C19.2334128 4.01592369 19.8357543 4.62581552 19.8349515 5.3772035 19.834147 6.12859148 19.2305022 6.737168 18.4864089 6.73676292 17.7423157 6.73635744 17.1393204 6.12712372 17.1393204 5.37573529 17.1393204 5.01438533 17.2816213 4.66786746 17.5348584 4.41256143 17.7880955 4.1572554 18.1314791 4.01412023 18.4893204 4.01470409zM18.4893204 11.4816176C19.0353444 11.4816176 19.5276034 11.8137593 19.7365578 12.3231654 19.9455121 12.8325715 19.8300118 13.4189233 19.4439145 13.8088059 19.0578172 14.1986884 18.4771582 14.315321 17.9726978 14.1043181 17.4682373 13.8933152 17.1393204 13.3962301 17.1393204 12.8448529 17.1393204 12.0919589 17.743736 11.4816176 18.4893204 11.4816176z"/>
  </g>
</svg>
